business_details^serial_no^2^4^1^
business_details^exp_id^2^4^2^
business_details^date^7^4^3^
business_details^amount^5^2306^4^
business_details^company_name^201^255^5^
business_details^business_trans^201^255^6^
business_dtl^date^7^4^1^
business_dtl^amount^201^100^2^
business_dtl^emp_num^201^50^3^
business_dtl^name_of_guest^201^50^4^
business_dtl^business_trans^201^50^5^
emp_mast^emp_no^2^4^1^
emp_mast^emp_name^201^255^2^
emp_mast^position^201^255^3^
emp_mast^manager^201^255^4^
emp_mast^department^201^255^5^
exp_details^serial_no^2^4^1^
exp_details^exp_id^2^4^2^
exp_details^date^7^4^3^
exp_details^location^201^255^4^
exp_details^expense_type^201^255^5^
exp_details^mileage^5^2306^6^
exp_details^amount^201^9^7^
exp_details^charge_to_fourjs^5^2306^8^
exp_header^exp_id^2^4^1^
exp_header^emp_no^2^4^2^
exp_header^notes^201^255^3^
exp_header^charge_type^201^255^4^
expense_dtl^date^7^4^1^
expense_dtl^description^201^100^2^
expense_dtl^expense_id^201^50^3^
expense_dtl^expense_type^201^50^4^
expense_dtl^mileage^201^50^5^
expense_dtl^amount^5^4096^6^
expense_dtl^charged_to_fourjs^5^4096^7^
header_info^expense_id^201^30^1^
header_info^emp_name^201^50^2^
header_info^position^201^30^3^
header_info^emp_num^2^4^4^
header_info^manager^201^30^5^
header_info^department^201^30^6^
header_info^notes^201^100^7^
header_info^charge_type^201^30^8^
